%YAML 1.1
%TAG !u! tag:unity3d.com,2011:
--- !u!114 &11400000
MonoBehaviour:
  m_ObjectHideFlags: 0
  m_CorrespondingSourceObject: {fileID: 0}
  m_PrefabInternal: {fileID: 0}
  m_GameObject: {fileID: 0}
  m_Enabled: 1
  m_EditorHideFlags: 0
  m_Script: {fileID: 11500000, guid: f7a72f8a939513c47ad6ad348808bb19, type: 3}
  m_Name: FinalConversation
  m_EditorClassIdentifier: 
  data:
  - speaker: 0
    conversationText: Whiiiii, we made it here finally!
  - speaker: 1
    conversationText: Indeed. Now lily we must talk.
  - speaker: 0
    conversationText: About what?
  - speaker: 1
    conversationText: About that his is the end of the demo.
  - speaker: 0
    conversationText: Oh noes.... Do you think the devs will make this to an actual
      game?
  - speaker: 0
    conversationText: Don't know. We will see!
  isFinal: 1
