%YAML 1.1
%TAG !u! tag:unity3d.com,2011:
--- !u!114 &11400000
MonoBehaviour:
  m_ObjectHideFlags: 0
  m_CorrespondingSourceObject: {fileID: 0}
  m_PrefabInternal: {fileID: 0}
  m_GameObject: {fileID: 0}
  m_Enabled: 1
  m_EditorHideFlags: 0
  m_Script: {fileID: 11500000, guid: f7a72f8a939513c47ad6ad348808bb19, type: 3}
  m_Name: RainFindLily
  m_EditorClassIdentifier: 
  data:
  - speaker: 1
    conversationText: Hey Lily! Is that you behind the tree?
  - speaker: 0
    conversationText: Rain? Why are you here?
  - speaker: 1
    conversationText: 'Came looking for you. We need to go to the village as soon
      as possible. '
  - speaker: 1
    conversationText: I was already on my way there. But so suddenly? Did something
      happen?
  - speaker: 1
    conversationText: I will explain to you when we get there. Now we must hurry!
